{
	"optStatus": 1,
	"errorCode": null,
	"jsonData": "{\"dataList\":[{\"recId\":1,\"marketName\":\"\",\"areaId\":\"\",\"marketNick\":\"\",\"marketImg\":\"\",\"barcodeImg\":\"\",\"marketDesc\":\"\",\"hoursBegin\":0,\"hoursEnd\":0,\"floorNum\":0,\"address\":\"\",\"coordinates\":\"\",\"isOpen\":false,\"newsUrl\":\"\",\"excellenceCatId\":0,\"priceMin\":0.0,\"priceMax\":0.0,\"sort\":0,\"priceAvg\":0.0,\"marketScale\":0,\"storeNum\":0,\"rentAvg\":0.0,\"marketAge\":0,\"facility\":0,\"traffic\":0,\"stayCondition\":0,\"excellenceStoreIds\":\"\",\"marketStatus\":0},{\"recId\":2,\"marketName\":\"\",\"areaId\":\"\",\"marketNick\":\"\",\"marketImg\":\"\",\"barcodeImg\":\"\",\"marketDesc\":\"\",\"hoursBegin\":0,\"hoursEnd\":0,\"floorNum\":0,\"address\":\"\",\"coordinates\":\"\",\"isOpen\":false,\"newsUrl\":\"\",\"excellenceCatId\":0,\"priceMin\":0.0,\"priceMax\":0.0,\"sort\":0,\"priceAvg\":0.0,\"marketScale\":0,\"storeNum\":0,\"rentAvg\":0.0,\"marketAge\":0,\"facility\":0,\"traffic\":0,\"stayCondition\":0,\"excellenceStoreIds\":\"\",\"marketStatus\":1},{\"recId\":3,\"marketName\":\"市场名称\",\"areaId\":\"\",\"marketNick\":\"\",\"marketImg\":\"\",\"barcodeImg\":\"\",\"marketDesc\":\"\",\"hoursBegin\":0,\"hoursEnd\":0,\"floorNum\":0,\"address\":\"\",\"coordinates\":\"\",\"isOpen\":false,\"newsUrl\":\"\",\"excellenceCatId\":0,\"priceMin\":0.0,\"priceMax\":0.0,\"sort\":0,\"priceAvg\":0.0,\"marketScale\":0,\"storeNum\":0,\"rentAvg\":0.0,\"marketAge\":0,\"facility\":0,\"traffic\":0,\"stayCondition\":0,\"excellenceStoreIds\":\"\",\"marketStatus\":0},{\"recId\":4,\"marketName\":\"\",\"areaId\":\"\",\"marketNick\":\"\",\"marketImg\":\"\",\"barcodeImg\":\"\",\"marketDesc\":\"\",\"hoursBegin\":0,\"hoursEnd\":0,\"floorNum\":0,\"address\":\"\",\"coordinates\":\"\",\"isOpen\":false,\"newsUrl\":\"\",\"excellenceCatId\":0,\"priceMin\":0.0,\"priceMax\":0.0,\"sort\":0,\"priceAvg\":0.0,\"marketScale\":0,\"storeNum\":0,\"rentAvg\":0.0,\"marketAge\":0,\"facility\":0,\"traffic\":0,\"stayCondition\":0,\"excellenceStoreIds\":\"\",\"marketStatus\":1},{\"recId\":5,\"marketName\":\"\",\"areaId\":\"\",\"marketNick\":\"\",\"marketImg\":\"\",\"barcodeImg\":\"\",\"marketDesc\":\"\",\"hoursBegin\":0,\"hoursEnd\":0,\"floorNum\":0,\"address\":\"\",\"coordinates\":\"\",\"isOpen\":false,\"newsUrl\":\"\",\"excellenceCatId\":0,\"priceMin\":0.0,\"priceMax\":0.0,\"sort\":0,\"priceAvg\":0.0,\"marketScale\":0,\"storeNum\":0,\"rentAvg\":0.0,\"marketAge\":0,\"facility\":0,\"traffic\":0,\"stayCondition\":0,\"excellenceStoreIds\":\"\",\"marketStatus\":0},{\"recId\":6,\"marketName\":\"\",\"areaId\":\"\",\"marketNick\":\"\",\"marketImg\":\"\",\"barcodeImg\":\"\",\"marketDesc\":\"\",\"hoursBegin\":0,\"hoursEnd\":0,\"floorNum\":0,\"address\":\"\",\"coordinates\":\"\",\"isOpen\":false,\"newsUrl\":\"\",\"excellenceCatId\":0,\"priceMin\":0.0,\"priceMax\":0.0,\"sort\":0,\"priceAvg\":0.0,\"marketScale\":0,\"storeNum\":0,\"rentAvg\":0.0,\"marketAge\":0,\"facility\":0,\"traffic\":0,\"stayCondition\":0,\"excellenceStoreIds\":\"\",\"marketStatus\":0},{\"recId\":7,\"marketName\":\"\",\"areaId\":\"\",\"marketNick\":\"\",\"marketImg\":\"\",\"barcodeImg\":\"\",\"marketDesc\":\"\",\"hoursBegin\":0,\"hoursEnd\":0,\"floorNum\":0,\"address\":\"\",\"coordinates\":\"\",\"isOpen\":false,\"newsUrl\":\"\",\"excellenceCatId\":0,\"priceMin\":0.0,\"priceMax\":0.0,\"sort\":0,\"priceAvg\":0.0,\"marketScale\":0,\"storeNum\":0,\"rentAvg\":0.0,\"marketAge\":0,\"facility\":0,\"traffic\":0,\"stayCondition\":0,\"excellenceStoreIds\":\"\",\"marketStatus\":0},{\"recId\":8,\"marketName\":\"\",\"areaId\":\"\",\"marketNick\":\"\",\"marketImg\":\"\",\"barcodeImg\":\"\",\"marketDesc\":\"\",\"hoursBegin\":0,\"hoursEnd\":0,\"floorNum\":0,\"address\":\"\",\"coordinates\":\"\",\"isOpen\":false,\"newsUrl\":\"\",\"excellenceCatId\":0,\"priceMin\":0.0,\"priceMax\":0.0,\"sort\":0,\"priceAvg\":0.0,\"marketScale\":0,\"storeNum\":0,\"rentAvg\":0.0,\"marketAge\":0,\"facility\":0,\"traffic\":0,\"stayCondition\":0,\"excellenceStoreIds\":\"\",\"marketStatus\":0},{\"recId\":9,\"marketName\":\"\",\"areaId\":\"\",\"marketNick\":\"\",\"marketImg\":\"\",\"barcodeImg\":\"\",\"marketDesc\":\"\",\"hoursBegin\":0,\"hoursEnd\":0,\"floorNum\":0,\"address\":\"\",\"coordinates\":\"\",\"isOpen\":false,\"newsUrl\":\"\",\"excellenceCatId\":0,\"priceMin\":0.0,\"priceMax\":0.0,\"sort\":0,\"priceAvg\":0.0,\"marketScale\":0,\"storeNum\":0,\"rentAvg\":0.0,\"marketAge\":0,\"facility\":0,\"traffic\":0,\"stayCondition\":0,\"excellenceStoreIds\":\"\",\"marketStatus\":0},{\"recId\":10,\"marketName\":\"\",\"areaId\":\"\",\"marketNick\":\"\",\"marketImg\":\"\",\"barcodeImg\":\"\",\"marketDesc\":\"\",\"hoursBegin\":0,\"hoursEnd\":0,\"floorNum\":0,\"address\":\"\",\"coordinates\":\"\",\"isOpen\":false,\"newsUrl\":\"\",\"excellenceCatId\":0,\"priceMin\":0.0,\"priceMax\":0.0,\"sort\":0,\"priceAvg\":0.0,\"marketScale\":0,\"storeNum\":0,\"rentAvg\":0.0,\"marketAge\":0,\"facility\":0,\"traffic\":0,\"stayCondition\":0,\"excellenceStoreIds\":\"\",\"marketStatus\":0}],\"totalCount\":200,\"currentPage\":1,\"pageSize\":10,\"totalPage\":20,\"className\":\"com.eelly.store.market.model.Market\"}",
	"__isset_bitfield": 1,
	"optionals": 
	[
		"ERROR_CODE",
		"JSON_DATA"
	]
}